G04 CAM350 V9.0 (Build 156) Date:  Mon Sep 06 15:52:10 2021 *
G04 Database: C:\1\649\100.0000649.cam *
G04 Layer 9: 1000000649-IMP *
%FSLAX25Y25*%
%MOIN*%
%SFA1.000B1.000*%

%MIA0B0*%
%IPPOS*%
%ADD10C,0.03937*%
%ADD17C,0.07874*%
%ADD18C,0.01969*%
%LN1000000649-IMP*%
%LPD*%
G54D18*
X43819Y206693D03*
X40663Y206689D03*
X37514D03*
X46962D03*
X50112D03*
X160947Y206693D03*
X157791Y206689D03*
X154642D03*
X164090D03*
X167240D03*
X249134Y206693D03*
X245978Y206689D03*
X242829D03*
X252277D03*
X255427D03*
X366262Y206693D03*
X363106Y206689D03*
X359957D03*
X369405D03*
X372555D03*
X454449Y206693D03*
X451293Y206689D03*
X448144D03*
X457592D03*
X460742D03*
X571576Y206693D03*
X568420Y206689D03*
X565271D03*
X574719D03*
X577869D03*
X659764Y206693D03*
X656608Y206689D03*
X653459D03*
X662907D03*
X666057D03*
X776891Y206693D03*
X773735Y206689D03*
X770586D03*
X780034D03*
X783184D03*
X865079Y206693D03*
X861923Y206689D03*
X858774D03*
X868222D03*
X871372D03*
X982206Y206693D03*
X979050Y206689D03*
X975901D03*
X985349D03*
X988499D03*
X1070394Y206693D03*
X1067238Y206689D03*
X1064089D03*
X1073537D03*
X1076687D03*
X1187521Y206693D03*
X1184365Y206689D03*
X1181216D03*
X1190664D03*
X1193814D03*
X160934Y30512D03*
X164090Y30516D03*
X167239D03*
X157791D03*
X154641D03*
X47744Y30512D03*
X50900Y30516D03*
X54049D03*
X44601D03*
X41451D03*
X366249Y30512D03*
X369405Y30516D03*
X372554D03*
X363106D03*
X359956D03*
X253059Y30512D03*
X256215Y30516D03*
X259364D03*
X249916D03*
X246766D03*
X571564Y30512D03*
X574720Y30516D03*
X577869D03*
X568421D03*
X565271D03*
X458374Y30512D03*
X461530Y30516D03*
X464679D03*
X455231D03*
X452081D03*
X776879Y30512D03*
X780035Y30516D03*
X783184D03*
X773736D03*
X770586D03*
X663689Y30512D03*
X666845Y30516D03*
X669994D03*
X660546D03*
X657396D03*
X982194Y30512D03*
X985350Y30516D03*
X988499D03*
X979051D03*
X975901D03*
X869004Y30512D03*
X872160Y30516D03*
X875309D03*
X865861D03*
X862711D03*
X1187509Y30512D03*
X1190665Y30516D03*
X1193814D03*
X1184366D03*
X1181216D03*
X1074319Y30512D03*
X1077475Y30516D03*
X1080624D03*
X1071176D03*
X1068026D03*
G54D10*
G01X-8858Y389026D02*
Y363189D01*
Y389026D02*
X2215D01*
X5906Y387795D01*
X7136Y386565D01*
X8366Y384104D01*
Y380413D01*
X7136Y377953D01*
X5906Y376722D01*
X2215Y375492D01*
X-8858D01*
X23130Y389026D02*
X13287Y363189D01*
X23130Y389026D02*
X32972Y363189D01*
X16978Y371801D02*
X29281D01*
X56348Y382874D02*
X55118Y385335D01*
X52657Y387795D01*
X50197Y389026D01*
X45276D01*
X42815Y387795D01*
X40354Y385335D01*
X39124Y382874D01*
X37894Y379183D01*
Y373031D01*
X39124Y369341D01*
X40354Y366880D01*
X42815Y364419D01*
X45276Y363189D01*
X50197D01*
X52657Y364419D01*
X55118Y366880D01*
X56348Y369341D01*
Y373031D01*
X50197D02*
X56348D01*
X64961Y389026D02*
Y363189D01*
Y389026D02*
X80955D01*
X64961Y376722D02*
X74803D01*
X64961Y363189D02*
X80955D01*
X108022Y389026D02*
Y363189D01*
Y363189D02*
X122785D01*
X135089Y389026D02*
X125246Y363189D01*
X135089Y389026D02*
X144931Y363189D01*
X128937Y371801D02*
X141240D01*
X147392Y389026D02*
X157234Y376722D01*
Y363189D01*
X167077Y389026D02*
X157234Y376722D01*
X179380Y389026D02*
X176919Y387795D01*
X174459Y385335D01*
X173228Y382874D01*
X171998Y379183D01*
Y373031D01*
X173228Y369341D01*
X174459Y366880D01*
X176919Y364419D01*
X179380Y363189D01*
X184301D01*
X186762Y364419D01*
X189222Y366880D01*
X190453Y369341D01*
X191683Y373031D01*
Y379183D01*
X190453Y382874D01*
X189222Y385335D01*
X186762Y387795D01*
X184301Y389026D01*
X179380D01*
X200295D02*
Y370571D01*
X201526Y366880D01*
X203986Y364419D01*
X207677Y363189D01*
X210138D01*
X213829Y364419D01*
X216289Y366880D01*
X217520Y370571D01*
Y389026D01*
X232283D02*
Y363189D01*
X223671Y389026D02*
X240896D01*
G54D17*
X68202Y-2953D02*
G01X129225D01*
Y-2953D02*
G75*
G03X137095Y4917I-9J7879D01*
X184850Y26575D02*
G03X192644Y33368I-11J7880D01*
Y33368D02*
G01X199434Y82590D01*
Y82590D02*
G03X191638Y91535I-7805J1067D01*
Y91535D02*
G01X185323Y91540D01*
X185328Y113189*
X193499*
Y113189D02*
G03X201356Y120626I-10J7879D01*
Y120626D02*
G01Y164304D01*
Y164304D02*
G03X193760Y172181I-7892J-10D01*
X186702Y180022D02*
G03X193760Y172181I7884D01*
X186702Y180022D02*
G01Y202760D01*
Y202760D02*
G03X178832Y210630I-7879J-9D01*
X115437D02*
G03X109536Y204729I7J-5908D01*
Y204729D02*
G01Y189961D01*
X87882*
Y204729*
Y204729D02*
G03X81981Y210630I-5908J-7D01*
X18586D02*
G03X10717Y202760I9J-7879D01*
Y202760D02*
G01Y180013D01*
X3473Y172161D02*
G03X10717Y180013I-645J7863D01*
X3473Y172161D02*
G03X-3937Y164305I471J-7867D01*
Y164305D02*
G01Y120625D01*
Y120625D02*
G03X3920Y113189I7867J443D01*
Y113189D02*
G01X12095Y113185D01*
X12091Y91535*
X5781*
Y91535D02*
G03X-2015Y82590I9J-7878D01*
Y82590D02*
G01X4774Y33368D01*
Y33368D02*
G03X12568Y26575I7805J1087D01*
Y26575D02*
G01X19875D01*
Y26575D02*
G03X27744Y34444I-9J7879D01*
Y34444D02*
G01Y41730D01*
X27941D02*
G03X27744Y41730I-98D01*
X27941D02*
G01Y34444D01*
Y34444D02*
G03X35811Y26575I7879J9D01*
X60323Y26571D02*
G01Y4917D01*
Y4917D02*
G03X68202Y-2953I7879J9D01*
X273517D02*
G01X334540D01*
Y-2953D02*
G03X342410Y4917I-9J7879D01*
X390165Y26575D02*
G03X397959Y33368I-11J7880D01*
Y33368D02*
G01X404749Y82590D01*
Y82590D02*
G03X396953Y91535I-7805J1067D01*
Y91535D02*
G01X390638Y91540D01*
X390642Y113189*
X398814*
Y113189D02*
G03X406671Y120626I-10J7879D01*
Y120626D02*
G01Y164304D01*
Y164304D02*
G03X399075Y172181I-7892J-10D01*
X392017Y180022D02*
G03X399075Y172181I7884D01*
X392017Y180022D02*
G01Y202760D01*
Y202760D02*
G03X384147Y210630I-7879J-9D01*
X320752D02*
G03X314851Y204729I7J-5908D01*
Y204729D02*
G01Y189961D01*
X293197*
Y204729*
Y204729D02*
G03X287296Y210630I-5908J-7D01*
X223901D02*
G03X216031Y202760I9J-7879D01*
Y202760D02*
G01Y180013D01*
X208788Y172161D02*
G03X216031Y180013I-645J7863D01*
X208788Y172161D02*
G03X201378Y164305I471J-7867D01*
Y164305D02*
G01Y120625D01*
Y120625D02*
G03X209234Y113189I7867J443D01*
Y113189D02*
G01X217410Y113185D01*
X217406Y91535*
X211096*
Y91535D02*
G03X203300Y82590I9J-7878D01*
Y82590D02*
G01X210089Y33368D01*
Y33368D02*
G03X217883Y26575I7805J1087D01*
Y26575D02*
G01X225190D01*
Y26575D02*
G03X233059Y34444I-9J7879D01*
Y34444D02*
G01Y41730D01*
X233256D02*
G03X233059Y41730I-98D01*
X233256D02*
G01Y34444D01*
Y34444D02*
G03X241126Y26575I7879J9D01*
X265638Y26571D02*
G01Y4917D01*
Y4917D02*
G03X273517Y-2953I7879J9D01*
X478832D02*
G01X539855D01*
Y-2953D02*
G03X547725Y4917I-9J7879D01*
X595480Y26575D02*
G03X603274Y33368I-11J7880D01*
Y33368D02*
G01X610064Y82590D01*
Y82590D02*
G03X602267Y91535I-7805J1067D01*
Y91535D02*
G01X595953Y91540D01*
X595957Y113189*
X604129*
Y113189D02*
G03X611986Y120626I-10J7879D01*
Y120626D02*
G01Y164304D01*
Y164304D02*
G03X604390Y172181I-7892J-10D01*
X597332Y180022D02*
G03X604390Y172181I7884D01*
X597332Y180022D02*
G01Y202760D01*
Y202760D02*
G03X589462Y210630I-7879J-9D01*
X526067D02*
G03X520166Y204729I7J-5908D01*
Y204729D02*
G01Y189961D01*
X498512*
Y204729*
Y204729D02*
G03X492611Y210630I-5908J-7D01*
X429216D02*
G03X421346Y202760I9J-7879D01*
Y202760D02*
G01Y180013D01*
X414103Y172161D02*
G03X421346Y180013I-645J7863D01*
X414103Y172161D02*
G03X406693Y164305I471J-7867D01*
Y164305D02*
G01Y120625D01*
Y120625D02*
G03X414549Y113189I7867J443D01*
Y113189D02*
G01X422725Y113185D01*
X422721Y91535*
X416411*
Y91535D02*
G03X408615Y82590I9J-7878D01*
Y82590D02*
G01X415404Y33368D01*
Y33368D02*
G03X423198Y26575I7805J1087D01*
Y26575D02*
G01X430505D01*
Y26575D02*
G03X438374Y34444I-9J7879D01*
Y34444D02*
G01Y41730D01*
X438571D02*
G03X438374Y41730I-98D01*
X438571D02*
G01Y34444D01*
Y34444D02*
G03X446441Y26575I7879J9D01*
X470953Y26571D02*
G01Y4917D01*
Y4917D02*
G03X478832Y-2953I7879J9D01*
X684147D02*
G01X745170D01*
Y-2953D02*
G03X753040Y4917I-9J7879D01*
X800795Y26575D02*
G03X808589Y33368I-11J7880D01*
Y33368D02*
G01X815379Y82590D01*
Y82590D02*
G03X807582Y91535I-7805J1067D01*
Y91535D02*
G01X801268Y91540D01*
X801272Y113189*
X809444*
Y113189D02*
G03X817301Y120626I-10J7879D01*
Y120626D02*
G01Y164304D01*
Y164304D02*
G03X809705Y172181I-7892J-10D01*
X802647Y180022D02*
G03X809705Y172181I7884D01*
X802647Y180022D02*
G01Y202760D01*
Y202760D02*
G03X794777Y210630I-7879J-9D01*
X731382D02*
G03X725481Y204729I7J-5908D01*
Y204729D02*
G01Y189961D01*
X703827*
Y204729*
Y204729D02*
G03X697926Y210630I-5908J-7D01*
X634531D02*
G03X626661Y202760I9J-7879D01*
Y202760D02*
G01Y180013D01*
X619418Y172161D02*
G03X626661Y180013I-645J7863D01*
X619418Y172161D02*
G03X612007Y164305I471J-7867D01*
Y164305D02*
G01Y120625D01*
Y120625D02*
G03X619864Y113189I7867J443D01*
Y113189D02*
G01X628040Y113185D01*
X628036Y91535*
X621726*
Y91535D02*
G03X613930Y82590I9J-7878D01*
Y82590D02*
G01X620719Y33368D01*
Y33368D02*
G03X628513Y26575I7805J1087D01*
Y26575D02*
G01X635820D01*
Y26575D02*
G03X643689Y34444I-9J7879D01*
Y34444D02*
G01Y41730D01*
X643886D02*
G03X643689Y41730I-98D01*
X643886D02*
G01Y34444D01*
Y34444D02*
G03X651756Y26575I7879J9D01*
X676268Y26571D02*
G01Y4917D01*
Y4917D02*
G03X684147Y-2953I7879J9D01*
X889462D02*
G01X950485D01*
Y-2953D02*
G03X958355Y4917I-9J7879D01*
X1006110Y26575D02*
G03X1013904Y33368I-11J7880D01*
Y33368D02*
G01X1020694Y82590D01*
Y82590D02*
G03X1012897Y91535I-7805J1067D01*
Y91535D02*
G01X1006583Y91540D01*
X1006587Y113189*
X1014759*
Y113189D02*
G03X1022616Y120626I-10J7879D01*
Y120626D02*
G01Y164304D01*
Y164304D02*
G03X1015020Y172181I-7892J-10D01*
X1007962Y180022D02*
G03X1015020Y172181I7884D01*
X1007962Y180022D02*
G01Y202760D01*
Y202760D02*
G03X1000092Y210630I-7879J-9D01*
X936697D02*
G03X930796Y204729I7J-5908D01*
Y204729D02*
G01Y189961D01*
X909142*
Y204729*
Y204729D02*
G03X903241Y210630I-5908J-7D01*
X839846D02*
G03X831976Y202760I9J-7879D01*
Y202760D02*
G01Y180013D01*
X824733Y172161D02*
G03X831976Y180013I-645J7863D01*
X824733Y172161D02*
G03X817322Y164305I471J-7867D01*
Y164305D02*
G01Y120625D01*
Y120625D02*
G03X825179Y113189I7867J443D01*
Y113189D02*
G01X833355Y113185D01*
X833350Y91535*
X827041*
Y91535D02*
G03X819245Y82590I9J-7878D01*
Y82590D02*
G01X826034Y33368D01*
Y33368D02*
G03X833828Y26575I7805J1087D01*
Y26575D02*
G01X841135D01*
Y26575D02*
G03X849004Y34444I-9J7879D01*
Y34444D02*
G01Y41730D01*
X849201D02*
G03X849004Y41730I-98D01*
X849201D02*
G01Y34444D01*
Y34444D02*
G03X857071Y26575I7879J9D01*
X881583Y26571D02*
G01Y4917D01*
Y4917D02*
G03X889462Y-2953I7879J9D01*
X1094777D02*
G01X1155800D01*
Y-2953D02*
G03X1163670Y4917I-9J7879D01*
X1211425Y26575D02*
G03X1219219Y33368I-11J7880D01*
Y33368D02*
G01X1226009Y82590D01*
Y82590D02*
G03X1218212Y91535I-7805J1067D01*
Y91535D02*
G01X1211898Y91540D01*
X1211902Y113189*
X1220074*
Y113189D02*
G03X1227931Y120626I-10J7879D01*
Y120626D02*
G01Y164304D01*
Y164304D02*
G03X1220335Y172181I-7892J-10D01*
X1213277Y180022D02*
G03X1220335Y172181I7884D01*
X1213277Y180022D02*
G01Y202760D01*
Y202760D02*
G03X1205407Y210630I-7879J-9D01*
X1142012D02*
G03X1136111Y204729I7J-5908D01*
Y204729D02*
G01Y189961D01*
X1114457*
Y204729*
Y204729D02*
G03X1108556Y210630I-5908J-7D01*
X1045161D02*
G03X1037291Y202760I9J-7879D01*
Y202760D02*
G01Y180013D01*
X1030048Y172161D02*
G03X1037291Y180013I-645J7863D01*
X1030048Y172161D02*
G03X1022637Y164305I471J-7867D01*
Y164305D02*
G01Y120625D01*
Y120625D02*
G03X1030494Y113189I7867J443D01*
Y113189D02*
G01X1038670Y113185D01*
X1038665Y91535*
X1032356*
Y91535D02*
G03X1024560Y82590I9J-7878D01*
Y82590D02*
G01X1031349Y33368D01*
Y33368D02*
G03X1039143Y26575I7805J1087D01*
Y26575D02*
G01X1046450D01*
Y26575D02*
G03X1054319Y34444I-9J7879D01*
Y34444D02*
G01Y41730D01*
X1054516D02*
G03X1054319Y41730I-98D01*
X1054516D02*
G01Y34444D01*
Y34444D02*
G03X1062386Y26575I7879J9D01*
X1086898Y26571D02*
G01Y4917D01*
Y4917D02*
G03X1094777Y-2953I7879J9D01*
X1227953Y214567D02*
G01Y226383D01*
Y226383D02*
G03X1216146Y238189I-11820J-14D01*
Y238189D02*
G01X7869D01*
Y238189D02*
G03X-3937Y226382I14J-11820D01*
Y226382D02*
G01Y214567D01*
Y-7874D02*
G01Y-19690D01*
Y-19690D02*
G03X7869Y-31496I11820J14D01*
Y-31496D02*
G01X1216146D01*
Y-31496D02*
G03X1227953Y-19693I-14J11820D01*
Y-19693D02*
G01Y-7874D01*
X1163670Y4917D02*
G01X1163674Y26575D01*
X958355Y4917D02*
G01X958359Y26575D01*
X753040Y4917D02*
G01X753044Y26575D01*
X547725Y4917D02*
G01X547729Y26575D01*
X342410Y4917D02*
G01X342414Y26575D01*
X137095Y4917D02*
G01X137099Y26575D01*
X35811D02*
G01X38695D01*
X56806D02*
G01X60323D01*
X137099D02*
G01X151885D01*
X169995D02*
G01X184850D01*
X241126D02*
G01X244010D01*
X262121D02*
G01X265638D01*
X342414D02*
G01X357200D01*
X375310D02*
G01X390165D01*
X446441D02*
G01X449325D01*
X467436D02*
G01X470953D01*
X547729D02*
G01X562515D01*
X580625D02*
G01X595480D01*
X651756D02*
G01X654640D01*
X672751D02*
G01X676268D01*
X753044D02*
G01X767830D01*
X785940D02*
G01X800795D01*
X857071D02*
G01X859955D01*
X878065D02*
G01X881583D01*
X958359D02*
G01X973145D01*
X991255D02*
G01X1006110D01*
X1062386D02*
G01X1065270D01*
X1083380D02*
G01X1086898D01*
X1163674D02*
G01X1178460D01*
X1196570D02*
G01X1211425D01*
X1196570Y210630D02*
G01X1205407D01*
X1178460Y210627D02*
G01X1142012D01*
X18586Y210630D02*
G01X34758D01*
X52868D02*
G01X81981D01*
X115437D02*
G01X151885D01*
X169996D02*
G01X178832D01*
X223901D02*
G01X240073D01*
X258183D02*
G01X287296D01*
X320752D02*
G01X357200D01*
X375311D02*
G01X384147D01*
X429216D02*
G01X445388D01*
X463498D02*
G01X492611D01*
X526067D02*
G01X562515D01*
X580625D02*
G01X589462D01*
X634531D02*
G01X650703D01*
X668813D02*
G01X697926D01*
X731382D02*
G01X767830D01*
X785940D02*
G01X794777D01*
X839846D02*
G01X856018D01*
X874128D02*
G01X903241D01*
X936697D02*
G01X973145D01*
X991255D02*
G01X1000092D01*
X1045161D02*
G01X1061333D01*
X1079443D02*
G01X1108556D01*
X-3937Y-7874D02*
G01Y26575D01*
X12568*
X1227953Y-7874D02*
G01Y26575D01*
X1211425*
X1205407Y210630D02*
G01X1227953D01*
Y214567*
X18586Y210630D02*
G01X-3937D01*
Y214567*
M02*
